Homework5
…
Task 2: Summarize the Data (Very Basic EDA)

For the combined data, we will

look at how the data is stored and see if everything makes sense

document the missing values in the data

comb_data

# A tibble: 320 × 38
   school sex      age address famsize Pstatus Medu     Fedu  Mjob  Fjob  reason
   <chr>  <fct>  <dbl> <fct>   <chr>   <chr>   <fct>    <fct> <chr> <chr> <chr> 
 1 GP     Female    18 Urban   GT3     A       higher … high… at_h… teac… course
 2 GP     Female    17 Urban   GT3     T       primary… prim… at_h… other course
 3 GP     Female    15 Urban   GT3     T       higher … 5th … heal… serv… home  
 4 GP     Female    16 Urban   GT3     T       seconda… seco… other other home  
 5 GP     Male      16 Urban   LE3     T       higher … seco… serv… other reput…
 6 GP     Male      16 Urban   LE3     T       5th to … 5th … other other home  
 7 GP     Female    17 Urban   GT3     A       higher … high… other teac… home  
 8 GP     Male      15 Urban   LE3     A       seconda… 5th … serv… other home  
 9 GP     Male      15 Urban   GT3     T       seconda… high… other other home  
10 GP     Female    15 Urban   GT3     T       higher … high… teac… heal… reput…
# ℹ 310 more rows
# ℹ 27 more variables: guardian <chr>, traveltime <dbl>, studytime <dbl>,
#   failures <dbl>, schoolsup <chr>, famsup <chr>, paid.x <chr>,
#   activities <chr>, nursery <chr>, higher <chr>, internet <chr>,
#   romantic <chr>, famrel <dbl>, freetime <dbl>, goout <dbl>, Dalc <dbl>,
#   Walc <dbl>, health <dbl>, absences.x <dbl>, G1.x <dbl>, G2.x <dbl>,
#   G3.x <dbl>, paid.y <chr>, absences.y <dbl>, G1.y <dbl>, G2.y <dbl>, …
…
